<?xml version="1.0" encoding="UTF-8" standalone="no"?>
<!-- Created with Inkscape (http://www.inkscape.org/) -->

<svg
   xmlns:dc="http://purl.org/dc/elements/1.1/"
   xmlns:cc="http://creativecommons.org/ns#"
   xmlns:rdf="http://www.w3.org/1999/02/22-rdf-syntax-ns#"
   xmlns:svg="http://www.w3.org/2000/svg"
   xmlns="http://www.w3.org/2000/svg"
   xmlns:sodipodi="http://sodipodi.sourceforge.net/DTD/sodipodi-0.dtd"
   xmlns:inkscape="http://www.inkscape.org/namespaces/inkscape"
   width="16.933334mm"
   height="14.663339mm"
   viewBox="0 0 16.933334 14.663338"
   version="1.1"
   id="svg14248"
   inkscape:version="0.92.2 (5c3e80d, 2017-08-06)"
   sodipodi:docname="column_half_drop.svg">
  <defs
     id="defs14242">
    <linearGradient
       id="linearGradient5740">
      <stop
         id="stop5742"
         offset="0"
         style="stop-color:#ffffff;stop-opacity:1" />
      <stop
         id="stop5744"
         offset="1"
         style="stop-color:#98b6d3;stop-opacity:1" />
    </linearGradient>
  </defs>
  <sodipodi:namedview
     id="base"
     pagecolor="#ffffff"
     bordercolor="#666666"
     borderopacity="1.0"
     inkscape:pageopacity="0.0"
     inkscape:pageshadow="2"
     inkscape:zoom="2.4542637"
     inkscape:cx="-60.245049"
     inkscape:cy="7.4062082"
     inkscape:document-units="mm"
     inkscape:current-layer="layer1"
     showgrid="false"
     inkscape:window-width="1366"
     inkscape:window-height="705"
     inkscape:window-x="-8"
     inkscape:window-y="-8"
     inkscape:window-maximized="1"
     width="8.467mm"
     inkscape:showpageshadow="false"
     fit-margin-top="0"
     fit-margin-left="0"
     fit-margin-right="0"
     fit-margin-bottom="0" />
  <metadata
     id="metadata14245">
    <rdf:RDF>
      <cc:Work
         rdf:about="">
        <dc:format>image/svg+xml</dc:format>
        <dc:type
           rdf:resource="http://purl.org/dc/dcmitype/StillImage" />
        <dc:title></dc:title>
      </cc:Work>
    </rdf:RDF>
  </metadata>
  <g
     inkscape:label="Layer 1"
     inkscape:groupmode="layer"
     id="layer1"
     transform="translate(0,-282.33665)">
    <rect
       style="opacity:1;vector-effect:none;fill:none;fill-opacity:1;fill-rule:evenodd;stroke:#000000;stroke-width:0.19999999;stroke-linecap:round;stroke-linejoin:miter;stroke-miterlimit:4;stroke-dasharray:none;stroke-dashoffset:0;stroke-opacity:1"
       id="rect12370-8"
       width="16.733334"
       height="14.463339"
       x="0.1"
       y="282.43665" />
    <rect
       style="opacity:1;vector-effect:none;fill:#98b6d6;fill-opacity:0.97254902;fill-rule:nonzero;stroke:#000000;stroke-width:0.1;stroke-linecap:butt;stroke-linejoin:round;stroke-miterlimit:0;stroke-dasharray:none;stroke-dashoffset:0;stroke-opacity:1"
       id="rect19273"
       width="2.8338709"
       height="2.8392615"
       x="3.1126065"
       y="286.86337" />
    <rect
       style="opacity:1;vector-effect:none;fill:#98b6d6;fill-opacity:0.97254902;fill-rule:nonzero;stroke:#000000;stroke-width:0.1;stroke-linecap:butt;stroke-linejoin:round;stroke-miterlimit:0;stroke-dasharray:none;stroke-dashoffset:0;stroke-opacity:1"
       id="rect19273-8"
       width="2.8338709"
       height="2.8392615"
       x="3.1126065"
       y="289.6333" />
    <rect
       style="opacity:1;vector-effect:none;fill:#98b6d6;fill-opacity:0.97254902;fill-rule:nonzero;stroke:#000000;stroke-width:0.1;stroke-linecap:butt;stroke-linejoin:round;stroke-miterlimit:0;stroke-dasharray:none;stroke-dashoffset:0;stroke-opacity:1"
       id="rect19273-0"
       width="2.8338709"
       height="2.8392615"
       x="10.987531"
       y="286.86337" />
    <rect
       style="opacity:1;vector-effect:none;fill:#98b6d6;fill-opacity:0.97254902;fill-rule:nonzero;stroke:#000000;stroke-width:0.1;stroke-linecap:butt;stroke-linejoin:round;stroke-miterlimit:0;stroke-dasharray:none;stroke-dashoffset:0;stroke-opacity:1"
       id="rect19273-81"
       width="2.8338709"
       height="2.8392615"
       x="10.987531"
       y="289.6333" />
    <rect
       style="opacity:1;vector-effect:none;fill:#98b6d6;fill-opacity:0.97254902;fill-rule:nonzero;stroke:#000000;stroke-width:0.1;stroke-linecap:butt;stroke-linejoin:round;stroke-miterlimit:0;stroke-dasharray:none;stroke-dashoffset:0;stroke-opacity:1"
       id="rect19273-02"
       width="2.8338709"
       height="2.8392615"
       x="7.0500679"
       y="288.24835" />
  </g>
</svg>
